…
# predictions with strata and dot in formula

    Code
      predict(f_fit, lung2, type = "survival", eval_time = c(100, 300))
    Condition
      Warning in `terms.formula()`:
      'varlist' has changed (from nvar=5) to new 6 after EncodeVars() -- should no longer happen!
    Output
      # A tibble: 227 x 1
         .pred           
         <list>          
       1 <tibble [2 x 2]>
       2 <tibble [2 x 2]>
       3 <tibble [2 x 2]>
       4 <tibble [2 x 2]>
       5 <tibble [2 x 2]>
       6 <tibble [2 x 2]>
       7 <tibble [2 x 2]>
       8 <tibble [2 x 2]>
       9 <tibble [2 x 2]>
      10 <tibble [2 x 2]>
      # i 217 more rows
…
